^E:\WORK\PURDUE\DATABASE\RESEARCH\IMPLEMENTATION (1)\FINALGENERIC\LDRTREE1.7 - AR\ARTEST.CPP
/c /Zi /nologo /W3 /WX- /O2 /Ob1 /Oy- /D WIN32 /D NDEBUG /D _CONSOLE /D _VC80_UPGRADE=0x0710 /D _MBCS /GF /Gm- /EHsc /MT /GS /Gy /fp:precise /Zc:wchar_t /Zc:forScope /Fo".\Release/" /Fd".\Release/vc100.pdb" /Gd /TP /analyze- /errorReport:prompt E:\WORK\PURDUE\DATABASE\RESEARCH\IMPLEMENTATION (1)\FINALGENERIC\LDRTREE1.7 - AR\ARTEST.CPP
^E:\WORK\PURDUE\DATABASE\RESEARCH\IMPLEMENTATION (1)\FINALGENERIC\LDRTREE1.7 - AR - LIMITED RETENSION\SLIDINGWINDOWRUM.H
/c /Zi /nologo /W3 /WX- /O2 /Ob1 /Oy- /D WIN32 /D NDEBUG /D _CONSOLE /D _VC80_UPGRADE=0x0710 /D _MBCS /GF /Gm- /EHsc /MT /GS /Gy /fp:precise /Zc:wchar_t /Zc:forScope /Fo".\Release/" /Fd".\Release/vc100.pdb" /Gd /TP /analyze- /errorReport:prompt E:\WORK\PURDUE\DATABASE\RESEARCH\IMPLEMENTATION (1)\FINALGENERIC\LDRTREE1.7 - AR - LIMITED RETENSION\SLIDINGWINDOWRUM.H
^E:\WORK\PURDUE\DATABASE\RESEARCH\IMPLEMENTATION (1)\FINALGENERIC\LDRTREE1.7 - AR - LIMITED RETENSION\MAIN.CPP
/c /Zi /nologo /W3 /WX- /O2 /Ob1 /Oy- /D WIN32 /D NDEBUG /D _CONSOLE /D _VC80_UPGRADE=0x0710 /D _MBCS /GF /Gm- /EHsc /MT /GS /Gy /fp:precise /Zc:wchar_t /Zc:forScope /Fo".\Release/" /Fd".\Release/vc100.pdb" /Gd /TP /analyze- /errorReport:prompt E:\WORK\PURDUE\DATABASE\RESEARCH\IMPLEMENTATION (1)\FINALGENERIC\LDRTREE1.7 - AR - LIMITED RETENSION\MAIN.CPP
