^E:\WORK\PURDUE\DATABASE\RESEARCH\IMPLEMENTATION (1)\FINALGENERIC\LDRTREE1.7 - AR\RELEASE\RTREE.EXE.INTERMEDIATE.MANIFEST
/nologo /verbose /outputresource:".\Release/rtree.exe;#1" /manifest .\Release\rtree.exe.intermediate.manifest
^E:\WORK\PURDUE\DATABASE\RESEARCH\IMPLEMENTATION (1)\FINALGENERIC\LDRTREE1.7 - AR - LIMITED RETENSION\RELEASE\RTREE.EXE.INTERMEDIATE.MANIFEST
/nologo /verbose /outputresource:".\Release/rtree.exe;#1" /manifest .\Release\rtree.exe.intermediate.manifest
